module gitlab.com/alyakimenko/processor

go 1.17

require (
	github.com/golang-migrate/migrate/v4 v4.15.1
	github.com/lib/pq v1.10.4
	github.com/sirupsen/logrus v1.8.1
)

require (
	github.com/hashicorp/errwrap v1.0.0 // indirect
	github.com/hashicorp/go-multierror v1.1.0 // indirect
	go.uber.org/atomic v1.6.0 // indirect
	golang.org/x/sys v0.0.0-20211013075003-97ac67df715c // indirect
)
